<?xml version="1.0" encoding="UTF-8" standalone="no"?>
<!-- Created with Inkscape (http://www.inkscape.org/) -->

<svg
   xmlns:dc="http://purl.org/dc/elements/1.1/"
   xmlns:cc="http://creativecommons.org/ns#"
   xmlns:rdf="http://www.w3.org/1999/02/22-rdf-syntax-ns#"
   xmlns:svg="http://www.w3.org/2000/svg"
   xmlns="http://www.w3.org/2000/svg"
   xmlns:xlink="http://www.w3.org/1999/xlink"
   xmlns:sodipodi="http://sodipodi.sourceforge.net/DTD/sodipodi-0.dtd"
   xmlns:inkscape="http://www.inkscape.org/namespaces/inkscape"
   width="128"
   height="128"
   viewBox="0 0 33.866666 33.866668"
   version="1.1"
   id="svg2798"
   sodipodi:docname="logo.svg"
   inkscape:version="0.92.4 (5da689c313, 2019-01-14)">
  <defs
     id="defs2792">
    <linearGradient
       inkscape:collect="always"
       xlink:href="#linearGradient823"
       id="linearGradient825"
       x1="2.1166666"
       y1="292.76666"
       x2="2.1166666"
       y2="299.11664"
       gradientUnits="userSpaceOnUse"
       gradientTransform="matrix(7.999995,0,0,8.0000032,1.3494255e-5,-2079.0011)" />
    <linearGradient
       inkscape:collect="always"
       id="linearGradient823">
      <stop
         style="stop-color:#158ed5;stop-opacity:1"
         offset="0"
         id="stop819" />
      <stop
         style="stop-color:#ffffff;stop-opacity:1"
         offset="1"
         id="stop821" />
    </linearGradient>
  </defs>
  <sodipodi:namedview
     id="base"
     pagecolor="#ffffff"
     bordercolor="#666666"
     borderopacity="1.0"
     inkscape:pageopacity="0.0"
     inkscape:pageshadow="2"
     inkscape:zoom="2.9941553"
     inkscape:cx="76.342401"
     inkscape:cy="67.528736"
     inkscape:document-units="mm"
     inkscape:current-layer="layer1"
     showgrid="true"
     units="px"
     inkscape:window-width="1362"
     inkscape:window-height="729"
     inkscape:window-x="0"
     inkscape:window-y="18"
     inkscape:window-maximized="0">
    <inkscape:grid
       type="xygrid"
       id="grid3343"
       dotted="true"
       empspacing="4" />
  </sodipodi:namedview>
  <metadata
     id="metadata2795">
    <rdf:RDF>
      <cc:Work
         rdf:about="">
        <dc:format>image/svg+xml</dc:format>
        <dc:type
           rdf:resource="http://purl.org/dc/dcmitype/StillImage" />
        <dc:title></dc:title>
      </cc:Work>
    </rdf:RDF>
  </metadata>
  <g
     inkscape:label="Layer 1"
     inkscape:groupmode="layer"
     id="layer1"
     transform="translate(0,-263.13332)">
    <rect
       ry="8.0000038"
       rx="7.9999948"
       y="263.13333"
       x="2.5145213e-05"
       height="33.86668"
       width="33.866642"
       id="rect817"
       style="display:inline;opacity:1;fill:url(#linearGradient825);fill-opacity:1;stroke:none;stroke-width:9.31999874;stroke-linecap:round;stroke-linejoin:round;stroke-miterlimit:4;stroke-dasharray:none;stroke-opacity:1"
       inkscape:label="Background" />
    <g
       id="g3533">
      <path
         transform="matrix(4.2935451,0,0,5.1534261,38.837067,234.60832)"
         id="path852-6"
         d="m -1.6392923,8.5830524 c -6e-7,0.4705192 -0.2961457,0.8964852 -0.7749473,1.2048267 -0.2394008,0.1541708 0.5621563,0.7954539 0.5621563,0.7954539 0,0 -2.0677291,-0.296395 -2.4330423,-0.296395 -1.4612526,0 -2.6458322,-0.7628579 -2.6458333,-1.7038856 1.1e-6,-0.9410274 1.1845807,-1.7038851 2.6458333,-1.7038851 1.4612526,0 2.6458322,0.7628577 2.6458333,1.7038851 z"
         style="display:inline;opacity:0.5;fill:#ffffff;fill-opacity:1;stroke:none;stroke-width:0.10360085;stroke-linecap:round;stroke-linejoin:round;stroke-miterlimit:4;stroke-dasharray:none;stroke-opacity:1"
         inkscape:connector-curvature="0"
         sodipodi:nodetypes="cscscsc" />
      <path
         transform="matrix(4.2935451,0,0,5.1534261,33.821067,234.60832)"
         id="path850-2"
         d="m -2.1166667,8.4666667 c -1.1e-6,0.87675 -1.1845807,1.5875003 -2.6458333,1.5875003 -0.3653132,0 -1.8520834,0.79375 -1.8520834,0.79375 0,0 0.2205982,-1.1150803 -0.018803,-1.2587203 -0.4788016,-0.28728 -0.7749467,-0.68415 -0.7749473,-1.12253 1.1e-6,-0.87675 1.1845807,-1.5875 2.6458333,-1.5875 1.4612526,0 2.6458322,0.71075 2.6458337,1.5875 z"
         style="display:inline;opacity:0.5;fill:#ffffff;fill-opacity:1;stroke:none;stroke-width:0.1;stroke-linecap:round;stroke-linejoin:round;stroke-miterlimit:4;stroke-dasharray:none;stroke-opacity:1"
         inkscape:connector-curvature="0"
         sodipodi:nodetypes="cscscsc" />
      <path
         transform="matrix(4.2935452,0,0,5.1534264,36.830668,234.60845)"
         style="display:inline;opacity:0.5;fill:#ffffff;fill-opacity:1;stroke:none;stroke-width:0.1;stroke-linecap:round;stroke-linejoin:round;stroke-miterlimit:4;stroke-dasharray:none;stroke-opacity:1"
         d="m -1.9884043,8.3222907 c -6e-7,0.43838 -0.2961457,0.83525 -0.7749473,1.12253 -0.2394008,0.1436396 -0.5244658,0.2598796 -0.8410088,0.3402196 -0.316543,0.0803 -0.6289729,1.3274597 -0.6289729,1.3274597 0,0 -1.1142385,-1.247129 -1.4307815,-1.3274597 -0.316543,-0.0803 -0.601608,-0.19658 -0.8410088,-0.3402196 -0.4788016,-0.28728 -0.7749467,-0.68415 -0.7749473,-1.12253 1.1e-6,-0.87675 1.1845807,-1.5875 2.6458333,-1.5875 1.4612526,0 2.6458322,0.71075 2.6458333,1.5875 z"
         id="path847-1"
         inkscape:connector-curvature="0"
         sodipodi:nodetypes="csscsscsc" />
      <g
         inkscape:label="Key"
         style="display:inline"
         transform="matrix(3.7099756,0,0,3.7099756,-175.75993,-74.516827)"
         id="g862">
        <circle
           r="0.54247636"
           cy="94.464798"
           cx="51.939232"
           id="path972"
           style="opacity:1;fill:#000000;fill-opacity:1;stroke:none;stroke-width:0.10251523;stroke-linecap:round;stroke-linejoin:round;stroke-miterlimit:4;stroke-dasharray:none;stroke-opacity:1" />
        <path
           sodipodi:nodetypes="cccc"
           inkscape:connector-curvature="0"
           id="path974"
           d="m 51.939231,94.096666 -0.277727,2.107453 h 0.555454 z"
           style="fill:#000000;fill-opacity:1;stroke:#000000;stroke-width:0.15616797;stroke-linecap:butt;stroke-linejoin:round;stroke-miterlimit:4;stroke-dasharray:none;stroke-opacity:1" />
      </g>
    </g>
  </g>
</svg>
